Take-Home Exercise 3b: Predicting HDB Resale Prices with Geographically Weighted Machine Learning Methods – ISSS626-GAA
…
library(dplyr)
library(stringr)

resale_tidy <- resale %>%
  mutate(address = paste(block, street_name)) %>%
  mutate(
    remaining_lease_yr = as.integer(str_sub(remaining_lease, 0, 2)),
    remaining_lease_mth = as.integer(str_sub(remaining_lease, 9, 11))
  ) %>%
  filter(flat_type == "5 ROOM")

# View the result
print(resale_tidy)

# A tibble: 10,886 × 14
   month   town       flat_type block street_name    storey_range floor_area_sqm
   <chr>   <chr>      <chr>     <chr> <chr>          <chr>                 <dbl>
 1 2023-01 ANG MO KIO 5 ROOM    306   ANG MO KIO AV… 16 TO 18                123
 2 2023-01 ANG MO KIO 5 ROOM    306   ANG MO KIO AV… 04 TO 06                123
 3 2023-01 ANG MO KIO 5 ROOM    402   ANG MO KIO AV… 10 TO 12                119
 4 2023-01 ANG MO KIO 5 ROOM    259   ANG MO KIO AV… 13 TO 15                135
 5 2023-01 ANG MO KIO 5 ROOM    176   ANG MO KIO AV… 04 TO 06                119
 6 2023-01 ANG MO KIO 5 ROOM    618   ANG MO KIO AV… 13 TO 15                133
 7 2023-01 ANG MO KIO 5 ROOM    520   ANG MO KIO AV… 19 TO 21                118
 8 2023-01 ANG MO KIO 5 ROOM    700C  ANG MO KIO AV… 19 TO 21                111
 9 2023-01 ANG MO KIO 5 ROOM    714   ANG MO KIO AV… 10 TO 12                119
10 2023-01 ANG MO KIO 5 ROOM    253   ANG MO KIO ST… 04 TO 06                128
# ℹ 10,876 more rows
# ℹ 7 more variables: flat_model <chr>, lease_commence_date <dbl>,
#   remaining_lease <chr>, resale_price <dbl>, address <chr>,
#   remaining_lease_yr <int>, remaining_lease_mth <int>
…
# Print the result to verify
print(mpsz_largest_polygons)

Simple feature collection with 332 features and 7 fields
Geometry type: POLYGON
Dimension:     XY
Bounding box:  xmin: 2667.538 ymin: 19021.55 xmax: 56396.44 ymax: 50256.33
Projected CRS: SVY21 / Singapore TM
# A tibble: 332 × 8
   SUBZONE_N               SUBZONE_C PLN_AREA_N     PLN_AREA_C REGION_N REGION_C
   <chr>                   <chr>     <chr>          <chr>      <chr>    <chr>   
 1 MARINA EAST             MESZ01    MARINA EAST    ME         CENTRAL… CR      
 2 INSTITUTION HILL        RVSZ05    RIVER VALLEY   RV         CENTRAL… CR      
 3 ROBERTSON QUAY          SRSZ01    SINGAPORE RIV… SR         CENTRAL… CR      
 4 JURONG ISLAND AND BUKOM WISZ01    WESTERN ISLAN… WI         WEST RE… WR      
 5 FORT CANNING            MUSZ02    MUSEUM         MU         CENTRAL… CR      
 6 MARINA EAST (MP)        MPSZ05    MARINE PARADE  MP         CENTRAL… CR      
 7 SUDONG                  WISZ03    WESTERN ISLAN… WI         WEST RE… WR      
 8 SEMAKAU                 WISZ02    WESTERN ISLAN… WI         WEST RE… WR      
 9 SOUTHERN GROUP          SISZ02    SOUTHERN ISLA… SI         CENTRAL… CR      
10 SENTOSA                 SISZ01    SOUTHERN ISLA… SI         CENTRAL… CR      
# ℹ 322 more rows
# ℹ 2 more variables: geometry <POLYGON [m]>, area [m^2]
…
